{
  "count": 87,
  "next": "http://swapi.co/api/people/?page=2",
  "previous": null,
  "results": [
    {
      "name": "Luke Skywalker",
      "height": "172",
      "mass": "77",
      "hair_color": "blond",
      "skin_color": "fair",
      "eye_color": "blue",
      "birth_year": "19BBY",
      "gender": "male",
      "homeworld": "http://swapi.co/api/planets/1/",
      "films": [
        "http://swapi.co/api/films/6/",
        "http://swapi.co/api/films/3/",
        "http://swapi.co/api/films/2/",
        "http://swapi.co/api/films/1/",
        "http://swapi.co/api/films/7/"
      ],
      "species": [
        "http://swapi.co/api/species/1/"
      ],
    }
  ]
}